<?xml version="1.0" encoding="utf-8"?>
<!-- Generator: Adobe Illustrator 22.0.1, SVG Export Plug-In . SVG Version: 6.00 Build 0)  -->
<svg version="1.1" id="Layer_1" xmlns="http://www.w3.org/2000/svg" xmlns:xlink="http://www.w3.org/1999/xlink" x="0px" y="0px"
	 viewBox="0 0 512 512" style="enable-background:new 0 0 512 512;" xml:space="preserve">
<style type="text/css">
	.st0{fill:#FFFFFF;}
</style>
<g>
	<path class="st0" d="M483.7,363.8v104.6v14c0,4.4-3.7,8.8-8.8,8.8h-46.5c-5.2,0-8.8-3.7-8.8-8.8v-14v-15.5H174.3v15.5v14
		c0,4.4-3.7,8.8-8.8,8.8h-46.5c-4.4,0-8.8-3.7-8.8-8.8v-14V364.5c0-11.1,1.5-19.9,7.3-31.7L175,212.6c6.6-14,24.3-25.8,39.7-25.8
		h163.6c15.5,0,33.9,11.8,40.6,25.8l57.5,120.2C481.6,343.9,483.7,352.7,483.7,363.8 M161.7,328.4h269.6l-39-83.3
		c-8-16.3-14.7-19.9-31.7-19.9H233.2c-17,0-23.6,3.7-31.7,19.9L161.7,328.4z M198.5,388.8c0-15.5-12.5-28.7-28.7-28.7
		s-28.7,12.5-28.7,28.7c0,15.5,12.5,28.7,28.7,28.7S198.5,404.4,198.5,388.8 M451.3,388.8c0-15.5-12.5-28.7-28.7-28.7
		c-16.3,0-28.7,12.5-28.7,28.7c0,15.5,12.5,28.7,28.7,28.7C438.8,417.6,451.3,404.4,451.3,388.8"/>
</g>
<g>
	<path class="st0" d="M59.6,167.4c-0.2,6.5,4.8,11.9,11.3,12.2c6.5,0.2,11.9-4.8,12.2-11.3c1.6-44.8,39.4-79.8,84.1-78.2
		c3.2,0.1,6.2-1.1,8.4-3.1c2.2-2,3.6-4.9,3.7-8.2c0.2-6.5-4.8-11.9-11.3-12.2C110.4,64.4,61.7,109.7,59.6,167.4"/>
</g>
<g>
	<path class="st0" d="M104.5,169.1c-0.2,6.5,4.8,11.9,11.3,12.2c6.5,0.2,11.9-4.8,12.2-11.3c0.7-20,17.6-35.7,37.6-34.9
		c3.2,0.1,6.2-1.1,8.4-3.1c2.2-2,3.6-4.9,3.7-8.2c0.2-6.5-4.8-11.9-11.3-12.2C133.5,110.3,105.7,136.1,104.5,169.1"/>
</g>
<g>
	<path class="st0" d="M153.6,159.7c6.3-5.9,16.2-5.5,22.1,0.8c5.9,6.3,5.5,16.2-0.8,22.1c-6.3,5.9-16.2,5.5-22.1-0.8
		C146.9,175.5,147.3,165.6,153.6,159.7"/>
</g>
<g>
	<path class="st0" d="M169.7,21C86.9,18,17.1,82.9,14,165.7c-0.2,6.5,4.8,11.9,11.3,12.2c6.5,0.2,11.9-4.8,12.2-11.3
		C40,96.7,99,41.9,168.9,44.4c3.2,0.1,6.2-1.1,8.4-3.1c2.2-2,3.6-4.9,3.7-8.2C181.3,26.7,176.2,21.2,169.7,21"/>
</g>
</svg>
