<?xml version="1.0" standalone="no"?>
<!DOCTYPE svg PUBLIC "-//W3C//DTD SVG 1.1//EN" "http://www.w3.org/Graphics/SVG/1.1/DTD/svg11.dtd">
<svg xmlns="http://www.w3.org/2000/svg">
<metadata>Copyright (C) 2018 by original authors @ fontello.com</metadata>
<defs>
<font id="fontello" horiz-adv-x="1000" >
<font-face font-family="fontello" font-weight="400" font-stretch="normal" units-per-em="1000" ascent="850" descent="-150" />
<missing-glyph horiz-adv-x="1000" />
<glyph glyph-name="man-user" unicode="&#xe800;" d="M500 361c111 0 201 109 201 245 0 135-29 244-201 244s-201-109-201-244c0-136 90-245 201-245z m-380-373c0 8 0 2 0 0l0 0z m760-7c0 2 0 16 0 0l0 0z m0 16c-4 236-35 303-270 345 0 0-33-42-110-42s-110 42-110 42c-233-42-265-108-270-337 0-19 0-20 0-17 0-5 0-12 0-25 0 0 56-113 380-113 324 0 380 113 380 113 0 8 0 14 0 18 0-1 0 1 0 16z" horiz-adv-x="1000" />

<glyph glyph-name="phone" unicode="&#xe801;" d="M786 158q0-15-6-39t-12-38q-11-28-68-60-52-28-103-28-15 0-30 2t-32 7-26 8-31 11-28 10q-54 20-97 47-71 44-148 120t-120 148q-27 43-46 97-2 5-10 28t-12 31-8 26-7 32-2 29q0 52 29 104 31 57 59 68 14 6 38 12t39 6q8 0 12-2 10-3 30-42 6-11 16-31t20-35 17-30q2-2 10-14t12-20 4-16q0-11-16-27t-35-31-34-30-16-25q0-5 3-13t4-11 8-14 7-10q42-77 97-132t131-97q1 0 10-6t14-8 11-5 13-2q10 0 25 16t30 34 31 35 28 16q7 0 15-4t20-12 14-10q14-8 30-17t36-20 30-17q39-19 42-29 2-4 2-12z" horiz-adv-x="785.7" />

<glyph glyph-name="right-chevron" unicode="&#xe802;" d="M688 466l-364 363c-13 14-30 21-50 21-20 0-37-7-50-21l-43-42c-13-14-20-30-20-50 0-19 7-36 20-51l271-270-271-271c-13-14-20-31-20-51 0-19 7-36 20-50l43-42c13-14 30-21 50-21 20 0 36 7 50 21l364 363c13 14 20 31 20 51 0 19-7 36-20 50z" horiz-adv-x="1000" />

<glyph glyph-name="boleto" unicode="&#xe809;" d="M869 636l-208 208a21 21 0 0 1-15 6h-438a83 83 0 0 1-83-83v-834a83 83 0 0 1 83-83h584a83 83 0 0 1 83 83v688c0 6-2 11-6 15z m-556-78c-35 0-63 28-63 63a62 62 0 0 0 42 59v3a21 21 0 1 0 41 0h21a21 21 0 1 0 0-41h-41a21 21 0 0 1-21-21c0-12 9-21 21-21 34 0 62-28 62-62a62 62 0 0 0-42-59v-4a21 21 0 1 0-41 0h-21a21 21 0 1 0 0 42h42a21 21 0 0 1 0 41z m208-583h-250a21 21 0 1 0 0 42h250a21 21 0 1 0 0-42z m208 125h-458a21 21 0 1 0 0 42h458a21 21 0 1 0 0-42z m0 125h-458a21 21 0 1 0 0 42h458a21 21 0 1 0 0-42z m0 125h-458a21 21 0 1 0 0 42h458a21 21 0 1 0 0-42z m0 125h-250a21 21 0 1 0 0 42h250a21 21 0 1 0 0-42z m-21 167a42 42 0 0 0-41 41v96l137-137h-96z" horiz-adv-x="1000" />

<glyph glyph-name="suporte" unicode="&#xe80a;" d="M605 165h-210c-173 0-315-141-315-315h838c0 174-142 315-313 315z m-68 142c16 0 32-5 43-14h75c39 39 62 91 62 148a217 217 0 1 1-324-189c7 32 36 55 68 55h76z m-359 116a103 103 0 0 1 73-84v196c-16-5-32-14-43-25l-5-5v7a313 313 0 0 0 19 101c4 18 13 32 22 48a265 265 0 0 0 30 45c9-2 16 2 23 7a283 283 0 0 0 402 0c7-7 13-9 20-7l3-4a265 265 0 0 0 52-89l14-51 4-50v-7l-4 3c-12 13-28 22-46 27l2-11v-176l-2-9 14 4v-75l-5-12-9-4h-180c-5 9-14 14-25 14h-76c-16 0-29-14-29-28 0-18 13-30 29-30h76c11 0 20 7 27 16h176a53 53 0 0 1 34 14l11 21 5 27v75l2 3c16 16 28 36 30 59l2 2 5 12v75l-5 57-18 55a269 269 0 0 1-57 98l-5 5c3 9 0 18-7 25a338 338 0 0 1-477 0c-7-7-9-16-7-25l-4-5c-14-14-25-29-34-45l-25-53a295 295 0 0 1-19-112v-75l5-12 2-2z" horiz-adv-x="1000" />

<glyph glyph-name="twitter" unicode="&#xf099;" d="M904 622q-37-54-90-93 0-8 0-23 0-73-21-145t-64-139-103-117-144-82-181-30q-151 0-276 81 19-2 43-2 126 0 224 77-59 1-105 36t-64 89q19-3 34-3 24 0 48 6-63 13-104 62t-41 115v2q38-21 82-23-37 25-59 64t-22 86q0 49 25 91 68-83 164-133t208-55q-5 21-5 41 0 75 53 127t127 53q79 0 132-57 61 12 115 44-21-64-80-100 52 6 104 28z" horiz-adv-x="928.6" />

<glyph glyph-name="facebook" unicode="&#xf09a;" d="M535 843v-147h-87q-48 0-65-20t-17-60v-106h164l-22-165h-142v-424h-171v424h-142v165h142v122q0 104 58 161t155 57q82 0 127-7z" horiz-adv-x="571.4" />

<glyph glyph-name="gplus" unicode="&#xf0d5;" d="M802 341q0-117-49-207t-138-142-206-51q-83 0-159 32t-131 87-87 131-32 159 32 159 87 131 131 87 159 32q160 0 274-107l-111-107q-65 63-163 63-69 0-127-34t-92-94-34-130 34-130 92-94 127-34q46 0 85 13t64 32 44 43 27 47 12 41h-232v141h386q7-36 7-68z m484 68v-118h-117v-116h-117v116h-117v118h117v116h117v-116h117z" horiz-adv-x="1285.7" />

<glyph glyph-name="instagram" unicode="&#xf16d;" d="M571 350q0 59-41 101t-101 42-101-42-42-101 42-101 101-42 101 42 41 101z m77 0q0-91-64-156t-155-64-156 64-64 156 64 156 156 64 155-64 64-156z m61 229q0-21-15-36t-37-15-36 15-15 36 15 36 36 15 37-15 15-36z m-280 123q-4 0-43 0t-59 0-54-2-57-5-40-11q-28-11-49-32t-33-49q-6-16-10-40t-6-58-1-53 0-59 0-43 0-43 0-59 1-53 6-58 10-40q12-28 33-49t49-32q16-6 40-11t57-5 54-2 59 0 43 0 42 0 59 0 54 2 58 5 39 11q28 11 50 32t32 49q6 16 10 40t6 58 1 53 0 59 0 43 0 43 0 59-1 53-6 58-10 40q-11 28-32 49t-50 32q-16 6-39 11t-58 5-54 2-59 0-42 0z m428-352q0-128-3-177-5-116-69-180t-179-69q-50-3-177-3t-177 3q-116 6-180 69t-69 180q-3 49-3 177t3 177q5 116 69 180t180 69q49 3 177 3t177-3q116-6 179-69t69-180q3-49 3-177z" horiz-adv-x="857.1" />

<glyph glyph-name="whatsapp" unicode="&#xf232;" d="M550 307q7 0 54-25t50-30q1-2 1-8 0-18-9-42-9-22-40-37t-57-15q-32 0-106 35-55 25-95 66t-82 103q-41 60-40 108v5q2 50 41 88 14 12 29 12 4 0 10-1t11-1q11 0 15-3t8-16q5-11 19-49t14-41q0-12-19-33t-20-26q0-3 3-8 19-41 57-76 31-30 84-57 7-4 13-4 8 0 30 27t29 28z m-114-296q71 0 136 28t112 74 75 112 28 136-28 136-75 112-112 75-136 28-135-28-112-75-75-112-28-136q0-113 67-205l-44-130 135 43q88-58 192-58z m0 771q86 0 164-34t134-89 90-135 33-163-33-163-90-134-134-90-164-34q-108 0-203 53l-233-75 76 226q-60 99-60 217 0 86 33 163t90 135 134 89 163 34z" horiz-adv-x="857.1" />

<glyph glyph-name="linkedin-squared" unicode="&#xf30c;" d="M132 61h129v387h-129v-387z m138 507q-1 29-21 48t-51 19-53-19-21-48q0-29 20-48t52-19h0q33 0 53 19t21 48z m326-507h129v222q0 86-41 130t-107 44q-76 0-117-65h1v56h-129q2-37 0-387h129v217q0 21 4 31 8 19 25 33t41 14q65 0 65-88v-207z m261 557v-536q0-66-47-113t-114-48h-535q-67 0-114 48t-47 113v536q0 66 47 113t114 48h535q67 0 114-48t47-113z" horiz-adv-x="857.1" />
</font>
</defs>
</svg>