<?xml version="1.0" encoding="utf-8"?>
<!-- Generator: Adobe Illustrator 21.0.2, SVG Export Plug-In . SVG Version: 6.00 Build 0)  -->
<svg version="1.1" id="Layer_1" xmlns="http://www.w3.org/2000/svg" xmlns:xlink="http://www.w3.org/1999/xlink" x="0px" y="0px"
	 viewBox="0 0 20 20" style="enable-background:new 0 0 20 20;" xml:space="preserve">
<style type="text/css">
	.st0{fill:#A41E22;}
</style>
<g>
	<path class="st0" d="M9.7,11.2h1.6l-0.1,0.7H8.6c0.1-0.3,0.2-0.5,0.3-0.7c0.2-0.3,0.5-0.5,0.9-0.8c0.4-0.2,0.7-0.4,0.8-0.5
		c0.2-0.2,0.3-0.3,0.3-0.5c0-0.2,0-0.3,0-0.4c-0.1-0.1-0.2-0.2-0.3-0.2c-0.2,0-0.4,0.1-0.5,0.3C10,9.1,9.9,9.2,9.9,9.4H9.2
		c0.1-0.3,0.2-0.6,0.3-0.8c0.3-0.4,0.7-0.6,1.2-0.6c0.4,0,0.7,0.1,0.9,0.3c0.2,0.2,0.2,0.5,0.2,0.9c-0.1,0.3-0.2,0.5-0.4,0.7
		c-0.1,0.1-0.4,0.3-0.6,0.5l-0.3,0.2C10.1,10.9,10,11,9.9,11C9.8,11.1,9.7,11.2,9.7,11.2L9.7,11.2z M11.7,11.1l0.1-0.6l1.9-2.3h0.8
		l-0.5,2.4h0.4l-0.1,0.6h-0.4l-0.2,0.8H13l0.2-0.8H11.7z M12.4,10.5h0.9l0.3-1.6L12.4,10.5z M12.8,17.4L12.8,17.4l0,1.3
		c0,0.7-0.6,1.4-1.4,1.4H2.5c-0.7,0-1.4-0.6-1.4-1.4V1.4C1.2,0.6,1.8,0,2.5,0h8.9c0.7,0,1.4,0.6,1.4,1.4l0,1.2
		c3.8,0.3,6.8,3.5,6.8,7.4C19.6,13.9,16.6,17.1,12.8,17.4L12.8,17.4z M5.4,1.1c0,0.1,0.1,0.2,0.2,0.2h2.9c0.1,0,0.2-0.1,0.2-0.2
		C8.6,1,8.5,1,8.4,1H5.5C5.5,1,5.4,1,5.4,1.1L5.4,1.1z M7.6,18.6C7.6,18.3,7.3,18,7,18c-0.4,0-0.7,0.3-0.7,0.7
		c0,0.4,0.3,0.7,0.7,0.7C7.3,19.3,7.6,19,7.6,18.6L7.6,18.6z M17.8,10c0-3.1-2.5-5.6-5.6-5.6c-0.1,0-0.2,0-0.3,0V2.5c0,0,0,0,0,0
		V2.1H2.1v15.4h9.7v-0.1l0,0c-4-0.2-7.1-3.4-7.1-7.4c0,0,0-0.1,0-0.1H3.6l2-2l2,2h-1c0,0,0,0.1,0,0.1c0,3.1,2.5,5.6,5.6,5.6
		C15.3,15.6,17.8,13.1,17.8,10L17.8,10z M17.8,10"/>
</g>
</svg>
