<svg version="1.1" xmlns="http://www.w3.org/2000/svg" xmlns:xlink="http://www.w3.org/1999/xlink" x="0px" y="0px" viewBox="-49 141 512 512" style="enable-background:new -49 141 512 512;" xml:space="preserve">
	<path fill="#f00947" d="M240.921,551.552c-14.454,0-26.238,11.746-26.238,26.238c0,14.454,11.784,26.238,26.238,26.238
		c14.454,0,26.238-11.784,26.238-26.238C267.159,563.298,255.375,551.552,240.921,551.552L240.921,551.552z M240.921,589.021
		c-6.182,0-11.232-5.049-11.232-11.232c0-6.22,5.049-11.232,11.232-11.232c6.182,0,11.231,5.012,11.231,11.232
		C252.153,583.972,247.104,589.021,240.921,589.021L240.921,589.021z M240.921,589.021"/>
	<path fill="#f00947" d="M274.662,454.15c16.496,0,29.966-13.47,29.966-30.004c0-16.505-13.47-29.966-29.966-29.966
		c-16.543,0-30.013,13.461-30.013,29.966C244.65,440.68,258.119,454.15,274.662,454.15L274.662,454.15z M274.662,409.177
		c8.224,0,14.96,6.698,14.96,14.969c0,8.272-6.735,14.997-14.96,14.997c-8.271,0-15.007-6.726-15.007-14.997
		C259.656,415.875,266.391,409.177,274.662,409.177L274.662,409.177z M274.662,409.177"/>
	<path fill="#f00947" d="M94.772,266.803c1.948,0,3.85-0.768,5.311-2.192l14.997-15.006
		c2.932-2.922,2.932-7.681,0-10.613c-2.922-2.922-7.681-2.922-10.604,0l-14.969,15.006c-2.96,2.923-2.96,7.644,0,10.613
		C90.931,266.035,92.87,266.803,94.772,266.803L94.772,266.803z M94.772,266.803"/>
	<path fill="#f00947" d="M364.561,399.773c0-6.585-2.557-12.768-7.203-17.451l-4.215-4.169
		c7.138-6.295,11.419-15.409,11.419-25.179c0-18.585-15.147-33.732-33.732-33.732c-1.358,0-2.707,0.14-4.028,0.29
		c0.15-1.321,0.29-2.669,0.29-4.028c0-18.585-15.147-33.732-33.732-33.732c-1.358,0-2.707,0.141-4.028,0.29
		c0.15-1.321,0.29-2.67,0.29-4.028c0-18.585-15.147-33.732-33.732-33.732c-1.358,0-2.707,0.141-4.028,0.29
		c0.15-1.321,0.29-2.67,0.29-4.028c0-18.585-15.147-33.732-33.732-33.732c-9.808,0-18.885,4.281-25.179,11.409l-5.967-5.958
		l-28.168-28.214c-9.667-9.62-25.32-9.62-34.912,0l-92.278,92.278c-9.629,9.63-9.629,25.292,0,34.912l64.981,64.991
		c-10.136,5.817-17.086,16.646-17.086,29.161c0,11.709,5.996,22.06,15.11,28.102c0.441,0.618,0.993,1.208,1.686,1.827
		l80.606,80.278v13.47h-14.96v97.402h194.804v-97.402h-14.96v-22.725c14.341-12.149,22.463-29.601,22.463-48.485
		c0-13.02-4.056-25.723-11.484-36.364l4.281-4.281C362.004,412.578,364.561,406.395,364.561,399.773L364.561,399.773z
		 M349.601,352.973c0,5.742-2.679,11.091-7.026,14.566l-26.313-26.313c3.475-4.356,8.815-6.988,14.566-6.988
		C341.18,334.239,349.601,342.622,349.601,352.973L349.601,352.973z M312.132,315.504c0,5.742-2.679,11.091-7.026,14.566
		l-26.313-26.313c3.475-4.356,8.814-6.988,14.566-6.988C303.71,296.769,312.132,305.153,312.132,315.504L312.132,315.504z
		 M274.662,278.035c0,5.742-2.679,11.091-7.026,14.566l-26.313-26.313c3.476-4.356,8.815-6.988,14.566-6.988
		C266.241,259.3,274.662,267.684,274.662,278.035L274.662,278.035z M218.458,221.831c10.314,0,18.734,8.384,18.734,18.735
		c0,5.742-2.679,11.091-7.026,14.566l-26.313-26.313C207.33,224.463,212.669,221.831,218.458,221.831L218.458,221.831z
		 M42.521,300.685c-3.803-3.803-3.803-9.948,0-13.723l92.25-92.278c0.955-0.918,2.051-1.649,3.185-2.127
		c0.543-0.216,1.133-0.178,1.686-0.328c1.349-0.253,2.67-0.253,3.981,0c0.552,0.15,1.133,0.112,1.686,0.328
		c1.133,0.478,2.229,1.208,3.185,2.127l17.601,17.601L60.122,318.286L42.521,300.685z M176.708,222.889l170.036,170.046
		c3.765,3.765,3.765,9.91,0,13.723l-3.298,3.251l-88.99,88.99c-3.765,3.812-9.911,3.812-13.723,0l-59.745-59.754h7.457
		c18.594,0,33.741-15.147,33.741-33.732c0-18.594-15.147-33.704-33.741-33.704h-74.901l-42.846-42.846L176.708,222.889z
		 M109.488,387.155l3.11-0.365c0.29-0.037,0.618-0.112,0.908-0.112h74.939c10.36,0,18.734,8.412,18.734,18.735
		c0,10.351-8.374,18.735-18.734,18.735h-74.939c-10.314,0-18.735-8.384-18.735-18.735
		C94.772,396.485,101.104,389.019,109.488,387.155L109.488,387.155z M177.214,611.493v-67.435h63.155
		c23.015,0,41.75,18.734,41.75,41.787v25.648H177.214z M342.098,611.493h-44.973v-25.648c0-16.543-7.138-31.399-18.482-41.787
		h63.455V611.493z M342.276,432.305c4.759,7.644,7.325,16.505,7.325,25.573c0,15.409-7.138,29.573-19.503,38.903l-3.007,2.267
		v30.041H192.22v-20.383l-2.669-2.229c-0.337-0.29-0.703-0.59-1.358-1.058l-66.517-66.274H159.8l70.367,70.367
		c4.787,4.796,11.119,7.213,17.452,7.213c6.295,0,12.627-2.417,17.451-7.213L342.276,432.305z M342.276,432.305"/>
</svg>
